/SiteWebIF/Intranet-etudiant.php (10426 hits)
/temps/style_emploi_du_temps.css (4415 hits)
/temps/FondInsa.jpg (4267 hits)
/temps/suivant.gif (4198 hits)
/temps/choix.gif (4191 hits)
/temps/precedent.gif (4154 hits)
/temps/InsaIF.ico (3068 hits)
/temps/ (2619 hits)
/notesif/ (2431 hits)
/temps/3IF1.ics (2165 hits)
/SiteWebIF/Intranet-etudiant.php (10426 hits)
/temps/style_emploi_du_temps.css (4415 hits)
/temps/FondInsa.jpg (4267 hits)
/temps/suivant.gif (4198 hits)
/temps/choix.gif (4191 hits)
/temps/precedent.gif (4154 hits)
/temps/InsaIF.ico (3068 hits)
/temps/ (2619 hits)
/notesif/ (2431 hits)
/temps/3IF1.ics (2165 hits)
/notesif (2006 hits)
/stages/style_pfe.css (1942 hits)
/temps/4IF39.html (1865 hits)
/stages/bandeauFinal.jpg (1856 hits)
/stages/FondInsa.jpg (1833 hits)
/temps/3IF39.html (1738 hits)
/temps/4IF38.html (1565 hits)
/stages/InsaIF.ico (1426 hits)
/apple-touch-icon-precomposed.png (1383 hits)
/favicon.ico (1283 hits)
/temps/4IF1.ics (1270 hits)
/apple-touch-icon.png (1240 hits)
/temps/4IF40.html (1203 hits)
/temps/5IF39.html (1177 hits)
/temps/3IF3.ics (1153 hits)
/temps/3IF38.html (1065 hits)
/temps/3IF40.html (991 hits)
/cas/themes/insa/media/favicon.ico (877 hits)
/temps/4IF4.ics (874 hits)
/temps/4IF41.html (793 hits)
/notesif/RSS/RSS_4IF.xml (786 hits)
/temps/5IF40.html (763 hits)
/SiteWebIF/Intranet-personnel.php (747 hits)
/temps/4IF3.ics (743 hits)
/temps/index.html (707 hits)
/temps/3IF37.html (685 hits)
/temps/4IF42.html (674 hits)
/temps/3IF41.html (632 hits)
/stages/ListePFE.php (631 hits)
/notesif/RSS/RSS_3IF.xml (542 hits)
/ (535 hits)
/temps/3IF2.ics (518 hits)
/temps/3IF42.html (498 hits)
/temps/4IF43.html (460 hits)
/robots.txt (448 hits)
/temps/4IF44.html (431 hits)
/stages/Listestage.php (407 hits)
/temps/3IF43.html (362 hits)
/temps/5IF.ics (357 hits)
/temps/5IF41.html (355 hits)
/temps/4IF45.html (350 hits)
/temps/INSA.jpg (334 hits)
/temps/3IF44.html (320 hits)
/temps/ML.ics (313 hits)
/temps/PL.ics (289 hits)
/temps/5IF42.html (285 hits)
/temps/4IF46.html (268 hits)
/temps/5IF43.html (264 hits)
/temps/TA.ics (264 hits)
/temps/4IF47.html (255 hits)
/temps/4IF48.html (249 hits)
/temps/3IF45.html (246 hits)
/permanences/ (245 hits)
/wiki/doku.php (237 hits)
/temps/4IF49.html (227 hits)
/temps/5IF45.html (224 hits)
/temps/3IF47.html (222 hits)
/temps/4IF50.html (213 hits)
/temps/4IF37.html (209 hits)
/temps/5IF44.html (208 hits)
/wiki/lib/exe/indexer.php (206 hits)
/temps/3IF48.html (203 hits)
/temps/3IF46.html (199 hits)
/temps/SoutenancesPFE.html (199 hits)
/temps/3IF49.html (189 hits)
/temps/4IF51.html (179 hits)
/temps (178 hits)
/temps/3IF51.html (175 hits)
/temps/4IF2.html (175 hits)
/temps/3IF50.html (172 hits)
/temps/5IF46.html (170 hits)
/temps/5IF38.html (165 hits)
/temps/3IF4.ics (163 hits)
/temps/GO.ics (161 hits)
/temps/4IF3.html (160 hits)
/temps/4IF52.html (160 hits)
/temps/5IF47.html (160 hits)
/temps/4IF2.ics (158 hits)
/temps/4IF1.html (155 hits)
/temps/4IF4.html (154 hits)
/temps/5013S.jpg (152 hits)
/temps/5IF48.html (152 hits)
/temps/GL.ics (149 hits)
/temps/3IF2.html (145 hits)
/temps/4IF5.html (144 hits)
/temps/style_pfe.css (136 hits)
/temps/5IF49.html (135 hits)
/temps/loupe.gif (134 hits)
/permanences (127 hits)
/temps/3IF52.html (127 hits)
/temps/3IF3.html (126 hits)
/temps/4IF6.html (126 hits)
/temps/5IF50.html (124 hits)
/temps/4IF7.html (123 hits)
/temps/3IF4.html (119 hits)
/temps/3IF1.html (118 hits)
/temps/5IF51.html (117 hits)
/micromachine/download/sujet.pdf (111 hits)
/temps/3IF5.html (111 hits)
/temps/4IF8.html (110 hits)
/temps/4IF9.html (108 hits)
/temps/5IF52.html (106 hits)
/temps/3IF6.html (105 hits)
/temps/3IF7.html (102 hits)
/notesif/saisie2007/ (101 hits)
/temps/5IF1.html (100 hits)
/temps/choix_3if.html (98 hits)
/temps/4IF10.html (97 hits)
/temps/5IF2.html (97 hits)
/temps/4IF11.html (93 hits)
/temps/5012N.jpg (92 hits)
/temps/5IF3.html (92 hits)
/temps/3IF8.html (91 hits)
/temps/4IF13.html (90 hits)
/temps/4IF12.html (89 hits)
/temps/5IF4.html (89 hits)
/temps/PF.ics (89 hits)
/temps/4IF16.html (87 hits)
/temps/5012S.jpg (86 hits)
/apple-touch-icon-114x114-precomposed.png (85 hits)
/apple-touch-icon-114x114.png (85 hits)
/temps/3IF9.html (85 hits)
/temps/4IF14.html (83 hits)
/temps/.html (82 hits)
/temps/3IF10.html (82 hits)
/temps/4IF17.html (81 hits)
/temps/4IF15.html (80 hits)
/temps/MK.ics (80 hits)
/temps/4IF42.ics (79 hits)
/temps/EA.ics (79 hits)
/temps/WO.ics (79 hits)
/temps/5IF.ic (78 hits)
/temps/SB.ics (78 hits)
/temps/SC.ics (78 hits)
/temps/5IF7.html (75 hits)
/temps/5IF5.html (73 hits)
/temps/3IF11.html (72 hits)
/temps/3IF21.html (71 hits)
/temps/3IF12.html (70 hits)
/temps/3IF15.html (68 hits)
/temps/5IF6.html (68 hits)
/temps/3IF13.html (67 hits)
/temps/3IF20.html (67 hits)
/temps/3IF16.html (64 hits)
/temps/3IF17.html (64 hits)
/temps/3IF18.html (64 hits)
/temps/3IF14.html (63 hits)
/temps/3IF22.html (61 hits)
/temps/5IF9.html (61 hits)
/temps/5IF37.html (60 hits)
/temps/choix_4if.html (60 hits)
/temps/4IF18.html (59 hits)
/temps/5IF10.html (58 hits)
/temps/5IF8.html (58 hits)
/temps/3IF19.html (57 hits)
/temps/3IF36.html (57 hits)
/wiki/lib/exe/css.php (57 hits)
/temps/4IF19.html (54 hits)
/temps/5IF12.html (53 hits)
/temps/5IF11.html (52 hits)
/temps/5IF13.html (52 hits)
/temps/5IF14.html (48 hits)
/temps/4IF20.html (47 hits)
/chercheurs/gcaplat/ (44 hits)
/dns/ (42 hits)
/temps/3IF23.html (41 hits)
/temps/5IF15.html (40 hits)
/micromachine/ (38 hits)
/notesif/coefs/coefs.4IF.2011-2012.pdf (38 hits)
/temps/5IF16.html (38 hits)
/temps/choix_5if.html (38 hits)
/temps/4IF21.html (36 hits)
/temps/5IF24.html (36 hits)
/temps/5IF17.html (33 hits)
/temps/5IF21.html (33 hits)
/temps/5IF18.html (32 hits)
/chercheurs/gcaplat/image1.gif (31 hits)
/dns/vlan.php (31 hits)
/temps/5IF1.ics (31 hits)
/temps/5IF26.html (31 hits)
/temps/5IF19.html (30 hits)
/temps/5IF22.html (30 hits)
/temps/5IF23.html (30 hits)
/temps/5IF27.html (30 hits)
/wiki/lib/exe/fetch.php (30 hits)
/chercheurs/gcaplat/index_fichiers/image003.jpg (29 hits)
/temps/5IF20.html (29 hits)
/temps/5IF25.html (29 hits)
/temps/4IF22.html (27 hits)
/chercheurs/gcaplat/Resume%20MC%20&%20RP.pdf (26 hits)
/temps/4IF23.html (26 hits)
/wiki/lib/exe/ajax.php (26 hits)
/limesurvey/admin/admin.php (25 hits)
/temps/2FC40.html (25 hits)
/temps/4IF24.html (25 hits)
/SiteWebIF/ (24 hits)
/chercheurs/gcaplat/Resume%20Modeles%20&%20Metamodeles.pdf (24 hits)
/chercheurs/gcaplat/index_fichiers/image002.jpg (24 hits)
/temps/3IF25.html (24 hits)
/temps/3IF24.html (23 hits)
/chercheurs/LCI/ (22 hits)
/temps/2FC39.html (22 hits)
/micromachine/logo.jpg (21 hits)
/notesif/saisie2007/api_notes/functions.js (21 hits)
/stages/descriptif/ABC%20Portage.pdf (21 hits)
/temps/2FC43.html (21 hits)
/micromachine/main.css (20 hits)
/micromachine/mm.css (20 hits)
/notesif/saisie2007/Images/consultation_1.bmp (20 hits)
/notesif/saisie2007/Images/consultation_2.bmp (20 hits)
/notesif/saisie2007/Images/consultation_3.bmp (20 hits)
/notesif/saisie2007/Images/consultation_a.bmp (20 hits)
/notesif/saisie2007/Images/export.bmp (20 hits)
/notesif/saisie2007/Images/import.bmp (20 hits)
/notesif/saisie2007/Images/neutraliser.jpg (20 hits)
/notesif/saisie2007/Images/titre_saisie.gif (20 hits)
/notesif/saisie2007/Images/upload_1.bmp (20 hits)
/notesif/saisie2007/Images/upload_2.bmp (20 hits)
/notesif/saisie2007/Images/upload_3.bmp (20 hits)
/notesif/saisie2007/Images/upload_a.bmp (20 hits)
/temps/4IF25.html (20 hits)
/micromachine/graphics/background.gif (19 hits)
/temps/2FC41.html (19 hits)
/temps/2FC42.html (19 hits)
/temps/3IF26.html (19 hits)
/temps/4IF36.html (19 hits)
/wiki/lib/exe/js.php (19 hits)
/stages/descriptif/AXWAY%20BOOK%20Stages%202011-2012%20VF-1.pdf (18 hits)
/temps/2FC44.html (16 hits)
/temps/3IF27.html (16 hits)
/stages/descriptif/MEDIAL.pdf (15 hits)
/temps/4IF26.html (15 hits)
/temps/4IF27.html (15 hits)
/SiteWebIF/agenda.html (14 hits)
/stages/descriptif/LOGICA%20Catalogue%20de%20stages%20Rhone%20Alpes%20Auvergne%202011%202012.pdf (14 hits)
/temps/3IF35.html (14 hits)
/temps/5IF36.html (14 hits)
/wiki/lib/tpl/monobook/static/3rd/dokuwiki/inputshadow.png (14 hits)
/dns/images/b_props.png (13 hits)
/dns/images/down.gif (13 hits)
/dns/images/up.gif (13 hits)
/temps/2FC45.html (13 hits)
/chercheurs/gcaplat/Sherlock.pps (12 hits)
/wiki/lib/tpl/monobook/static/3rd/dokuwiki/favicon.ico (12 hits)
/wiki/lib/tpl/monobook/static/3rd/dokuwiki/logo.png (12 hits)
/wiki/lib/tpl/monobook/static/3rd/monobook/bullet.gif (12 hits)
/wiki/lib/tpl/monobook/static/3rd/monobook/external.png (12 hits)
/wiki/lib/tpl/monobook/static/3rd/monobook/headbg.jpg (12 hits)
/wiki/lib/tpl/monobook/static/3rd/monobook/user.gif (12 hits)
/wiki/lib/tpl/monobook/static/img/button-dw.png (12 hits)
/wiki/lib/tpl/monobook/static/img/button-monobook.png (12 hits)
/wiki/lib/tpl/monobook/static/img/button-rss.png (12 hits)
/wiki/lib/tpl/monobook/user/button-xhtml.png (12 hits)
/Sourrouille/Jls-fr/Jls-details.htm (11 hits)
/notesif/saisie2007/_classement4IF.php (11 hits)
/notesif/saisie2007/_ratrappages_generic.php (11 hits)
/temps/2FC38.html (11 hits)
/SiteWebIF/LivretAccueiPersonnel2012.pdf (10 hits)
/chercheurs/gcaplat/versionologie.html (10 hits)
/stages/descriptif/CHECK%20AND%20TAKE%20Offres%20de%20stage%202011.12.08.pdf (10 hits)
/stages/descriptif/SOCIETE%20GENERALE%20-%20stage%20developpement.pdf (10 hits)
/temps/2FC49.html (10 hits)
/temps/2FC50.html (10 hits)
/Sourrouille/Jls-fr/PhotoJLSourrouille.JPG (9 hits)
/notesif/coefs/coefs.3IF.2011-2012.pdf (9 hits)
/stages/descriptif/EXAKIS.7z (9 hits)
/temps/2FC46.html (9 hits)
/temps/2FC47.html (9 hits)
/temps/2FC51.html (9 hits)
/temps/4IF35.html (9 hits)
/SiteWebIF/FAQ.pdf (8 hits)
/chercheurs/LCI/YugTalpac/ (8 hits)
/dns/form_dns.php (8 hits)
/dns/mod_base_dns.php (8 hits)
/micromachine (8 hits)
/notesif/saisie2007/_classement5IF.php (8 hits)
/stages/descriptif/M2ES%20TECHNOLOGIES.pdf (8 hits)
/temps/2FC48.html (8 hits)
/chercheurs/LCI/image001.jpg (7 hits)
/chercheurs/LCI/versionologie.html (7 hits)
/micromachine/download/prom_data.masm (7 hits)
/micromachine/validation.html (7 hits)
/temps/2FC1.html (7 hits)
/temps/2FC52.html (7 hits)
/temps/5IF35.html (7 hits)
/wiki/lib/tpl/monobook/static/3rd/dokuwiki/mail_icon.gif (7 hits)
/wiki/lib/tpl/monobook/static/3rd/dokuwiki/windows.gif (7 hits)
/apple-touch-icon-144x144-precomposed.png (6 hits)
/apple-touch-icon-144x144.png (6 hits)
/micromachine/download/asm (6 hits)
/notesif/saisie2007/api_notes/classementLaniere.php (6 hits)
/notesif/saisie2007/api_notes/consultationAlphabetique.php (6 hits)
/stages/descriptif/ARKEMA%20CHINE.docx (6 hits)
/stages/descriptif/ATOS%20WORLDLINE%20LYON.doc (6 hits)
/stages/descriptif/IBM%20-%20DVS-intership-2012-V4-1.pdf (6 hits)
/stages/descriptif/KAPT%20-%20Paiement%20mobile.pdf (6 hits)
/stages/descriptif/SIGMALID%20-%20Developpeur%20Web.pdf (6 hits)
/temps/2FC2.html (6 hits)
/temps/choix_2fc.html (6 hits)
/SiteWebIF/livretSI.pdf (5 hits)
/chercheurs/gcaplat/index_fichiers/image001.jpg (5 hits)
/micromachine/download/masm (5 hits)
/micromachine/download/ram_data_loop.asm (5 hits)
/micromachine/download/ram_data_test_indind.asm (5 hits)
/notesif/saisie2007/_activites.php (5 hits)
/notesif/saisie2007/api_notes/saisieAlphabetique.php (5 hits)
/stages/descriptif/BIIN.pdf (5 hits)
/stages/descriptif/FLEJAY.docx (5 hits)
/stages/descriptif/THALES%20Hong%20Kong.7z (5 hits)
/temps/2FC3.html (5 hits)
/temps/2FC37.html (5 hits)
/temps/3IF.html (5 hits)
/temps/4IF.html (5 hits)
/Sourrouille/Jls-fr/SEE-OTR/SEE-23-5-2002.htm (4 hits)
/chercheurs/gcaplat/Pya%20Tagluc.htm (4 hits)
/chercheurs/gcaplat/cvprof_fichiers/if.css (4 hits)
/chercheurs/gcaplat/install.zip (4 hits)
/micromachine/download/micromachine-a-trous.cct (4 hits)
/micromachine/download/poster.pdf (4 hits)
/micromachine/download/ram_data_test_ind.asm (4 hits)
/notes (4 hits)
/notesif/index.php (4 hits)
/notesif/notesif_2012/ (4 hits)
/notesif/saisie2007/api_notes/uploadNotesFromWeb.php (4 hits)
/permanences/meteo.html (4 hits)
/stages/descriptif/ADD%20ONLINE.docx (4 hits)
/stages/descriptif/CEA_2012_FlexibleMeccano_Court-1.doc (4 hits)
/stages/descriptif/CHANEL%20-%20MODE%20-%20ACP%20SI%20-%202-1.pdf (4 hits)
/stages/descriptif/CREATIS%20Offre%20de%20stage%20ingenieur.pdf (4 hits)
/stages/descriptif/EDF%20-%202012%2002%20proposition%20stage%20PRISM-METRIX-GEOMETRIX%202012_2%20_%20DRIIME.pdf (4 hits)
/stages/descriptif/EDF%20Clamart%20-%202011%2010%20proposition%20stage%20PRISM-METRIX-GEOMETRIX%202012%20_%20DRIIME.doc (4 hits)
/stages/descriptif/FIE%20-%20%20Annonce%20stage%20etudiant%20INSA-1.pdf (4 hits)
/stages/descriptif/INSA-LIRIS%20stage_pfe_kinect_2012_v2.docx (4 hits)
/stages/descriptif/SCHLUMBERGER%20UK.docx (4 hits)
/stages/descriptif/SYDER%202012%20-%20Offre%20de%20Stage%20INSA%20-%20Suivi%20des%20vehicules.pdf (4 hits)
/stages/descriptif/Stage%20pre-embauche%20-%20ingenieur%20developpeur%20R&D.pdf (4 hits)
/temps/2FC4.html (4 hits)
/temps/2FC5.html (4 hits)
/temps/5IF28.html (4 hits)
/temps/GF.ics (4 hits)
/temps/choix_IM1.html (4 hits)
/amghar/magazine/mag-2010.pdf (3 hits)
/amghar/magazine/mag-2011.pdf (3 hits)
/chercheurs/LCI/YugTalpac/cvprof_fichiers/if.css (3 hits)
/chercheurs/LCI/cvprof_fichiers/if.css (3 hits)
/chercheurs/LCI/info-21.gif (3 hits)
/chercheurs/LCI/logoLCI.jpg (3 hits)
/chercheurs/LCI/mail_icon.gif (3 hits)
/chercheurs/gcaplat/CREATIVITE%20SERENDIPITE%20et%20VERSIONOLOGIE.pdf (3 hits)
/crossdomain.xml (3 hits)
/dns (3 hits)
/micromachine/download/ram_data_array.asm (3 hits)
/micromachine/download/ram_data_funccall.asm (3 hits)
/micromachine/download/ram_data_multiplication.asm (3 hits)
/notesif/ReferentielIF/ (3 hits)
/notesif/saisie2007/_uploadRatrappages_generic.php (3 hits)
/stages/descriptif/2012_SNT_stage19_movies.pdf (3 hits)
/stages/descriptif/CARRY%20IT.pdf (3 hits)
/stages/descriptif/Calabio%20-%202012%20-%20Annonce%20de%20stage%20-%20Front%20end%20dev%20-%20Lyon.pdf (3 hits)
/stages/descriptif/DIMO%20GESTION%20-%20stage%20dev%20GMAO.pdf (3 hits)
/stages/descriptif/ENS%20-%20Profil%20Stagiaire%20CARPACCIO.pdf (3 hits)
/stages/descriptif/ERDF-GRDF%20Offre%20stage%20GrDFx.pdf (3 hits)
/stages/descriptif/FIDUCIAL.doc (3 hits)
/stages/descriptif/IEI%20FC%20-%20Offre%20de%20stage%20informatique.pdf (3 hits)
/stages/descriptif/INRIA.pdf (3 hits)
/stages/descriptif/INSA%20LIRIS%202.doc (3 hits)
/stages/descriptif/LIRIS%20-%20sujetPortefeuillePartieMetier.pdf (3 hits)
/stages/descriptif/NOMENDUMOFFRESDESTAGE.pdf (3 hits)
/stages/descriptif/Net%20Results%20Bresil.doc (3 hits)
/stages/descriptif/PLAYSOFT%20-%2020111031-%20Mobilite%20-%20Developeur_fr.doc (3 hits)
/stages/descriptif/SYDER%202012%20-%20Offre%20de%20Stage%20INSA%20-%20Factures%20EDF.pdf (3 hits)
/stages/descriptif/THALES%20-%20Book%20Stages%20ITO%202011%202012.doc (3 hits)
/stages/descriptif/THALES%20-%20Stage%202012%20Centre%20de%20service.pdf (3 hits)
/temps/2FC10.html (3 hits)
/temps/2FC11.html (3 hits)
/temps/2FC12.html (3 hits)
/temps/2FC13.html (3 hits)
/temps/2FC15.html (3 hits)
/temps/2FC17.html (3 hits)
/temps/2FC8.html (3 hits)
/temps/3IF29.html (3 hits)
/temps/4IF53.html (3 hits)
/wiki/lib/tpl/monobook/static/3rd/dokuwiki/buttonshadow.png (3 hits)
/SiteWebIF/stages/bandeauFinal.jpg (2 hits)
/SiteWebIF/stages/style_pfe.css (2 hits)
/amghar/magazine/mag-2003.pdf (2 hits)
/chercheurs/ (2 hits)
/chercheurs/gcaplat/Resume%20MC%20%26%20RP.pdf (2 hits)
/icons/back.gif (2 hits)
/icons/blank.gif (2 hits)
/icons/folder.gif (2 hits)
/limesurvey/scripts/jquery/css/start/jquery-ui.css (2 hits)
/limesurvey/scripts/jquery/jquery-ui.js (2 hits)
/limesurvey/scripts/jquery/jquery.js (2 hits)
/micromachine/download/libmm.clf (2 hits)
/notesif/ReferentielIF/pmwiki.php (2 hits)
/notesif/ReferentielIF/pub/skins/pmwiki/pmwiki-32.gif (2 hits)
/notesif/ReferentielIF/pub/skins/pmwiki/pmwiki.css (2 hits)
/notesif/saisie2007/_statistiques.php (2 hits)
/notesif/saisie2007/help.htm (2 hits)
/stages/descriptif/ALSTOM%20-%20Offre%20stage.pdf (2 hits)
/stages/descriptif/ASTEK%20-%20OFE%20-%20Ingenieurs%20stagiaires-1.doc (2 hits)
/stages/descriptif/AXA%20-%20Job%20Requisition%20-%20Performance%20Analyst%20UK.pdf (2 hits)
/stages/descriptif/CASINO%20Stage%20developpement%20_S_DEVELOP%20_0711.doc (2 hits)
/stages/descriptif/CNRS%20-%20CCSD_profil_stagiaire.pdf (2 hits)
/stages/descriptif/EDAP%20TMS%20-%20offreStageEZ-1.docx (2 hits)
/stages/descriptif/ESR%20-%20Offre%20de%20stage%20-%20Clermont-Ferrand-1.pdf (2 hits)
/stages/descriptif/ETS%20MONTREAL.docx (2 hits)
/stages/descriptif/EUROCOPTER.7z (2 hits)
/stages/descriptif/GG%20FACTOR.pdf (2 hits)
/stages/descriptif/INSA%20LIRIS%20-%20120228_sujet%20stage%20LIRIS_vHOS.pdf (2 hits)
/stages/descriptif/ITRON%20soft%20releve%20rapide%20des%20compteurs.pdf (2 hits)
/stages/descriptif/ORANGE%20-%20fiche%20de%20stage%202012GOVLPServices.pdf (2 hits)
/stages/descriptif/ORANGE%20DECI.zip (2 hits)
/stages/descriptif/ORANGE%20LABS%20RENNES.docx (2 hits)
/stages/descriptif/Orange%20Labs%20Stages%20Securite%202012.zip (2 hits)
/stages/descriptif/SAFT.doc (2 hits)
/stages/descriptif/SNCF%20-%20Nouvelle%20fiche%20Mission%20Stage%20pour%20manager_-2.doc (2 hits)
/stages/descriptif/SNCF%20-%20Offre%20de%20stage%20ADW%202011-2012-1.pdf (2 hits)
/stages/descriptif/STERIA%20Book%20Stages%20%202012%20v0.4.doc (2 hits)
/stages/descriptif/SUUDS%20Gespower%20-%20TG2011S1PDI_PlateformeDInstallation.pdf (2 hits)
/stages/descriptif/THALES%20-%20Fiche%20Stagiaire%20ISe-ID%20_2012-01_.pdf (2 hits)
/stages/descriptif/Thales%20Avionics%20Valence.pdf (2 hits)
/stages/descriptif/UUDS%20Gespower%20-%20STG2011S1EET_EditeurDEtiquette.pdf (2 hits)
/stages/descriptif/VERIMAG.pdf (2 hits)
/temps/2FC14.html (2 hits)
/temps/2FC19.html (2 hits)
/temps/2FC6.html (2 hits)
/temps/2FC9.html (2 hits)
/temps/3IF28.html (2 hits)
/temps/3IF30.html (2 hits)
/temps/3IF53.html (2 hits)
/temps/4IF.ics (2 hits)
/temps/4IF54.html (2 hits)
/temps/5IF29.html (2 hits)
/temps/5IF39.htm (2 hits)
/temps/5IF53.html (2 hits)
/temps/5if.ics (2 hits)
/wiki/lib/images/close.png (2 hits)
/wiki/lib/images/larger.gif (2 hits)
/wiki/lib/images/smaller.gif (2 hits)
/wiki/lib/images/smileys/delete.gif (2 hits)
/wiki/lib/images/smileys/fixme.gif (2 hits)
/wiki/lib/images/smileys/icon_biggrin.gif (2 hits)
/wiki/lib/images/smileys/icon_confused.gif (2 hits)
/wiki/lib/images/smileys/icon_cool.gif (2 hits)
/wiki/lib/images/smileys/icon_doubt.gif (2 hits)
/wiki/lib/images/smileys/icon_doubt2.gif (2 hits)
/wiki/lib/images/smileys/icon_eek.gif (2 hits)
/wiki/lib/images/smileys/icon_exclaim.gif (2 hits)
/wiki/lib/images/smileys/icon_fun.gif (2 hits)
/wiki/lib/images/smileys/icon_lol.gif (2 hits)
/wiki/lib/images/smileys/icon_neutral.gif (2 hits)
/wiki/lib/images/smileys/icon_question.gif (2 hits)
/wiki/lib/images/smileys/icon_razz.gif (2 hits)
/wiki/lib/images/smileys/icon_sad.gif (2 hits)
/wiki/lib/images/smileys/icon_silenced.gif (2 hits)
/wiki/lib/images/smileys/icon_smile.gif (2 hits)
/wiki/lib/images/smileys/icon_smile2.gif (2 hits)
/wiki/lib/images/smileys/icon_surprised.gif (2 hits)
/wiki/lib/images/smileys/icon_wink.gif (2 hits)
/wiki/lib/images/toolbar/bold.png (2 hits)
/wiki/lib/images/toolbar/chars.png (2 hits)
/wiki/lib/images/toolbar/h.png (2 hits)
/wiki/lib/images/toolbar/h1.png (2 hits)
/wiki/lib/images/toolbar/h2.png (2 hits)
/wiki/lib/images/toolbar/h3.png (2 hits)
/wiki/lib/images/toolbar/h4.png (2 hits)
/wiki/lib/images/toolbar/h5.png (2 hits)
/wiki/lib/images/toolbar/hequal.png (2 hits)
/wiki/lib/images/toolbar/hminus.png (2 hits)
/wiki/lib/images/toolbar/hplus.png (2 hits)
/wiki/lib/images/toolbar/hr.png (2 hits)
/wiki/lib/images/toolbar/image.png (2 hits)
/wiki/lib/images/toolbar/italic.png (2 hits)
/wiki/lib/images/toolbar/link.png (2 hits)
/wiki/lib/images/toolbar/linkextern.png (2 hits)
/wiki/lib/images/toolbar/mono.png (2 hits)
/wiki/lib/images/toolbar/ol.png (2 hits)
/wiki/lib/images/toolbar/sig.png (2 hits)
/wiki/lib/images/toolbar/smiley.png (2 hits)
/wiki/lib/images/toolbar/strike.png (2 hits)
/wiki/lib/images/toolbar/ul.png (2 hits)
/wiki/lib/images/toolbar/underline.png (2 hits)
/wiki/lib/images/wrap.gif (2 hits)
//temps (1 hits)
/4IF3.ics (1 hits)
/SiteWebIF (1 hits)
/SiteWebIF/Intranet-Etudiant.php (1 hits)
/SiteWebIF/Intranet-etudiant.php/home-service (1 hits)
/SiteWebIF/Intranet-etudiant.php/service-home (1 hits)
/SiteWebIF/IntranetEtudiant.php (1 hits)
/Sourrouille/Jls-fr/Rapports/ (1 hits)
/Sourrouille/Jls-fr/Rapports/Compos98-1.ps (1 hits)
/Sourrouille/Jls-fr/Rapports/RR-01-2003.pdf (1 hits)
/Sourrouille/Jls-fr/Rapports/WISME-2003.pdf (1 hits)
/Sourrouille/Jls-us.html (1 hits)
/administrator/ (1 hits)
/cache/caa37016007b56628f231acfd3d91188 (1 hits)
/chercheurs/LCI/YugTalpac (1 hits)
/chercheurs/gcaplat (1 hits)
/chercheurs/gcaplat/Pya%20Tagluc_fichiers/image002.jpg (1 hits)
/chercheurs/gcaplat/Resume%20MC%20&amp (1 hits)
/documents/ (1 hits)
/dossiers/ (1 hits)
/fiches/ (1 hits)
/home-service (1 hits)
/html (1 hits)
/index (1 hits)
/index.html (1 hits)
/limesurvey/admin/ (1 hits)
/limesurvey/admin/favicon.ico (1 hits)
/limesurvey/admin/scripts/admin_core.js (1 hits)
/limesurvey/admin/scripts/listsurvey.js (1 hits)
/limesurvey/admin/scripts/statistics.js (1 hits)
/limesurvey/admin/scripts/tabpane/js/tabpane.js (1 hits)
/limesurvey/admin/styles/default/adminstyle.css (1 hits)
/limesurvey/admin/styles/default/bkgmaintitle.gif (1 hits)
/limesurvey/admin/styles/default/images/desc.gif (1 hits)
/limesurvey/admin/styles/default/printablestyle.css (1 hits)
/limesurvey/admin/styles/default/tab.webfx.css (1 hits)
/limesurvey/images/add.png (1 hits)
/limesurvey/images/add_small.png (1 hits)
/limesurvey/images/assessments.png (1 hits)
/limesurvey/images/backup.png (1 hits)
/limesurvey/images/blank.gif (1 hits)
/limesurvey/images/browse.png (1 hits)
/limesurvey/images/checkdb.png (1 hits)
/limesurvey/images/close.gif (1 hits)
/limesurvey/images/databack.png (1 hits)
/limesurvey/images/databegin.png (1 hits)
/limesurvey/images/dataend.png (1 hits)
/limesurvey/images/dataentry.png (1 hits)
/limesurvey/images/dataforward.png (1 hits)
/limesurvey/images/deactivate.png (1 hits)
/limesurvey/images/delete.png (1 hits)
/limesurvey/images/do.png (1 hits)
/limesurvey/images/do_small.png (1 hits)
/limesurvey/images/docs.png (1 hits)
/limesurvey/images/document.png (1 hits)
/limesurvey/images/donate.png (1 hits)
/limesurvey/images/downarrow.png (1 hits)
/limesurvey/images/edit.png (1 hits)
/limesurvey/images/emailsettings.png (1 hits)
/limesurvey/images/expired.png (1 hits)
/limesurvey/images/export.png (1 hits)
/limesurvey/images/exportcsv.png (1 hits)
/limesurvey/images/exportr.png (1 hits)
/limesurvey/images/exportspss.png (1 hits)
/limesurvey/images/exportvv.png (1 hits)
/limesurvey/images/global.png (1 hits)
/limesurvey/images/home.png (1 hits)
/limesurvey/images/importcsv.png (1 hits)
/limesurvey/images/importldap.png (1 hits)
/limesurvey/images/importold.png (1 hits)
/limesurvey/images/importvv.png (1 hits)
/limesurvey/images/inactive.png (1 hits)
/limesurvey/images/invite.png (1 hits)
/limesurvey/images/labels.png (1 hits)
/limesurvey/images/logout.png (1 hits)
/limesurvey/images/minus.gif (1 hits)
/limesurvey/images/plus.gif (1 hits)
/limesurvey/images/print.png (1 hits)
/limesurvey/images/profile_edit.png (1 hits)
/limesurvey/images/quota.png (1 hits)
/limesurvey/images/remind.png (1 hits)
/limesurvey/images/resetsurveylogic.png (1 hits)
/limesurvey/images/resetsurveylogic_disabled.png (1 hits)
/limesurvey/images/saved.png (1 hits)
/limesurvey/images/security.png (1 hits)
/limesurvey/images/seperator.gif (1 hits)
/limesurvey/images/showhelp.png (1 hits)
/limesurvey/images/speaker.png (1 hits)
/limesurvey/images/statistics.png (1 hits)
/limesurvey/images/summary.png (1 hits)
/limesurvey/images/survey_security.png (1 hits)
/limesurvey/images/surveylist.png (1 hits)
/limesurvey/images/templates.png (1 hits)
/limesurvey/images/token_delete.png (1 hits)
/limesurvey/images/token_do.png (1 hits)
/limesurvey/images/token_edit.png (1 hits)
/limesurvey/images/token_manage.png (1 hits)
/limesurvey/images/token_remind.png (1 hits)
/limesurvey/images/tokenify.png (1 hits)
/limesurvey/images/tokens.png (1 hits)
/limesurvey/images/usergroup.png (1 hits)
/limesurvey/images/viewlast.png (1 hits)
/limesurvey/index.php (1 hits)
/limesurvey/scripts/jquery/css/start/images/ui-bg_inset-hard_100_fcfdfd_1x100.png (1 hits)
/limesurvey/scripts/jquery/css/start/lime-progress.css (1 hits)
/limesurvey/scripts/jquery/jquery.qtip.js (1 hits)
/limesurvey/scripts/jquery/jquery.tablesorter.min.js (1 hits)
/limesurvey/scripts/jquery/locale/ui.datepicker-fr.js (1 hits)
/limesurvey/scripts/survey_runtime.js (1 hits)
/limesurvey/templates/default//template.css (1 hits)
/limesurvey/templates/default/favicon.ico (1 hits)
/limesurvey/templates/default/template.js (1 hits)
/linux/ (1 hits)
/micromachine/download/ (1 hits)
/micromachine/download/asm++++++++++++++++++++++++Result:+%ED%E5+%ED%E0%F8%EB%EE%F1%FC+%F4%EE%F0%EC%FB+%E4%EB%FF+%EE%F2%EF%F0%E0%E2%EA%E8 (1 hits)
/notesif/saisie2007 (1 hits)
/notesif/saisie2007/Images/dispense.bmp (1 hits)
/notesif/saisie2007/_ratrappages_2006_2007.php (1 hits)
/notesif/saisie2007/index.php (1 hits)
/notesif/saisie2007/manest08/error.html (1 hits)
/notesif/saisie2007/manest08/main.php (1 hits)
/permanences/meteo.htlm (1 hits)
/redmine (1 hits)
/service-home (1 hits)
/servif-home (1 hits)
/servif_home (1 hits)
/sitewebif/intranet-etudiant.php (1 hits)
/sqk (1 hits)
/sql (1 hits)
/stages/ (1 hits)
/stages/descriptif/ACS.pdf (1 hits)
/stages/descriptif/ACTIMAGE%202.zip (1 hits)
/stages/descriptif/ACTIMAGE.zip (1 hits)
/stages/descriptif/ADOCIA-1.pdf (1 hits)
/stages/descriptif/ALSTOM%20TRANSPORT.zip (1 hits)
/stages/descriptif/ARCHIVES%20MICHAUX.pdf (1 hits)
/stages/descriptif/ARKEMA (1 hits)
/stages/descriptif/AXA%20-%20STAGE%202012_%20middle-1.doc (1 hits)
/stages/descriptif/AXA.7z (1 hits)
/stages/descriptif/Absi-IT%20jobs.pdf (1 hits)
/stages/descriptif/Alptis%20-%20%20Developpeur%20Decionnel-INSA-mars12.pdf (1 hits)
/stages/descriptif/BIOMERIEUX%20-%20stage%20business%20reporting,%20intelligence.pdf (1 hits)
/stages/descriptif/BULL%20-%20Participer%20a%20la%20qualifiaction%20d'un%20logiciel%20specifique%20developpe%20en%20J2EE.pdf (1 hits)
/stages/descriptif/CAPGEMINI%20book%20stages.pdf (1 hits)
/stages/descriptif/CASINO%20Stage%20controle%20gestion%20Groupe%20Webmaster%20SCDGWMDCGv1.doc (1 hits)
/stages/descriptif/CERMEP.pdf (1 hits)
/stages/descriptif/CHANEL%20-%20Campus%20recrutement%20Mars%202012.jpg (1 hits)
/stages/descriptif/CNDRI%20-%20INSA%20stage_informatique-instrumentation-2.pdf (1 hits)
/stages/descriptif/COMPILATIO.pdf (1 hits)
/stages/descriptif/CREDIT%20AGRICOLE%20-%20Offre%20Stagiaire%20Innovation%20Credits.pdf (1 hits)
/stages/descriptif/CRIS.zip (1 hits)
/stages/descriptif/DAWAN.pdf (1 hits)
/stages/descriptif/ENVOLEA%20SEMER_OFFRE_STAGE_120112.pdf (1 hits)
/stages/descriptif/EURO%20INFORMATION%20DEVELOPPEMENT.zip (1 hits)
/stages/descriptif/EUROSCRIPT.zip (1 hits)
/stages/descriptif/FOXSTREAM%20-%20Sujet%20Stage%20PFE%202011-1.pdf (1 hits)
/stages/descriptif/INRIA%20-%20Proposition%20de%20stage%20Agriped%204eme%20A%20ing.pdf (1 hits)
/stages/descriptif/INTERFACE%20TRANSPORT.pdf (1 hits)
/stages/descriptif/JOLITV.pdf (1 hits)
/stages/descriptif/LEE%20Conseil%20-%20906%2000%20-%20DRH%20-%20Offre%20de%20stage%20Base%20Commerciale%20-%20V2.pdf (1 hits)
/stages/descriptif/MAIDIS%20-%20Offre%20de%20stage%202012%20-%20INSA%204IF.doc (1 hits)
/stages/descriptif/MEDICALLAB.pdf (1 hits)
/stages/descriptif/NETRESULTS.pdf (1 hits)
/stages/descriptif/ORANGE%20BUSINESS%20%20SERVICES.zip (1 hits)
/stages/descriptif/ORANGE.zip (1 hits)
/stages/descriptif/PLEBICOM.pdf (1 hits)
/stages/descriptif/PRICEMIINISTER%20-%20Fiche%20de%20poste%20_Stagiaire%20DeveloppeurJava%20Scrum_PM-1.pdf (1 hits)
/stages/descriptif/SAINT%20GOBAIN%20-%2031%2001%202012%20Stage%20chef%20projet%20Junior%20eBusiness%201.2012.pdf (1 hits)
/stages/descriptif/SOCIETE (1 hits)
/stages/descriptif/SOCIETE%20GENERALE%20-%20stage_KC.pdf (1 hits)
/stages/descriptif/ST%20MICROELECTRONICS%20Crolles%20visualisation%20(2).pdf (1 hits)
/stages/descriptif/STMICROELECTRONICS.doc (1 hits)
/stages/descriptif/SYRINA%20Stagiaire%20Developpeur%20VBA.pdf (1 hits)
/stages/descriptif/Stage%20pre-embauche%20-%20assistant%20chef%20de%20projet.pdf (1 hits)
/stages/descriptif/Stage%20pre-embauche%20-%20ingenieur%20developpeur%20en%20Finance%20de%20Marche.pdf (1 hits)
/stages/descriptif/THALES (1 hits)
/stages/descriptif/THALES%20-%20Etude%20et%20realisation%20d'une%20carte%20d'acquisition%20equipee%20d'un%20microcontroleur%20PIC24F.pdf (1 hits)
/stages/descriptif/The_Coding_Machine%20Stage_Fin_d_etudes_2.doc (1 hits)
/stages/descriptif/Univ%20lyon%203%20-%20offre_de_stage_2012_2.pdf (1 hits)
/stages/descriptif/WID%20OP.zip (1 hits)
/stages/descriptif/YSEOP.zip (1 hits)
/temp (1 hits)
/temps/%C3%A7IF38.html (1 hits)
/temps/%C3%A7IF40.html (1 hits)
/temps/1IF14.ics (1 hits)
/temps/2FC16.html (1 hits)
/temps/2FC18.html (1 hits)
/temps/2FC36.html (1 hits)
/temps/2FC7.html (1 hits)
/temps/3IF.ics (1 hits)
/temps/3IF1 (1 hits)
/temps/3IF31.html (1 hits)
/temps/3IF32.html (1 hits)
/temps/3IF384.html (1 hits)
/temps/3if38 (1 hits)
/temps/4IF (1 hits)
/temps/4IF02.html (1 hits)
/temps/4IF1 (1 hits)
/temps/4IF32.html (1 hits)
/temps/4IF38 (1 hits)
/temps/4IF38.html* (1 hits)
/temps/4IF4.ics%20 (1 hits)
/temps/4IF44html (1 hits)
/temps/4TC.html (1 hits)
/temps/4TC39.html (1 hits)
/temps/4Tc.html (1 hits)
/temps/4if1.ics (1 hits)
/temps/4if3.ics (1 hits)
/temps/5013N.jpg (1 hits)
/temps/5IF.html (1 hits)
/temps/5IF2.ics (1 hits)
/temps/5IF40.htmlgoo (1 hits)
/temps/5IF49.htm (1 hits)
/temps/5IFA.ics (1 hits)
/temps/5IFB.ics (1 hits)
/temps/5if.ics%2bbio (1 hits)
/temps/5if17 (1 hits)
/temps/5if17.htm (1 hits)
/temps/5if17.html (1 hits)
/temps/IF40.html (1 hits)
/temps/insa.jpg (1 hits)
/temps/l (1 hits)
/temps/prochain.gif (1 hits)
/temps/soutenancespfe.html (1 hits)
/temps4IF47.html (1 hits)
/temps5IF47.html (1 hits)
/tnotesemps/5IF43.html (1 hits)
/w3c/p3p.xml (1 hits)
/wiki/lib/images/blank.gif (1 hits)
/wiki/lib/images/diff.png (1 hits)
/wiki/lib/images/error.png (1 hits)
/wp-login.php (1 hits)
